@startuml

object Proposal
    Proposal : UUID
object File
    File : UUID
object DateTime
    DateTime : ISO8601
object EmailId
object MIMEType

Proposal --> File: refers to
Proposal --> EmailId: sent to
Proposal --> DateTime: sent on
Proposal --> DateTime: confirmed on

File --> MIMEType: is of type
@enduml
